{
    "prepare_queue": {
        "installed": [],
        "uninstalled": []
    },
    "config_munge": {
        "files": {
            "config.xml": {
                "parents": {
                    "/*": [
                        {
                            "xml": "<feature name=\"Device\"><param name=\"browser-package\" value=\"Device\" /></feature>",
                            "count": 1
                        }
                    ]
                }
            }
        }
    },
    "installed_plugins": {
        "cordova-plugin-device": {
            "PACKAGE_NAME": "za.co.valuead.lms"
        },
        "cordova-plugin-globalization": {
            "PACKAGE_NAME": "za.co.valuead.lms"
        },
        "com.phonegap.plugins.PushPlugin": {
            "PACKAGE_NAME": "za.co.valuead.lms"
        },
        "cordova-plugin-console": {
            "PACKAGE_NAME": "za.co.valuead.lms"
        },
        "cordova-plugin-inappbrowser": {
            "PACKAGE_NAME": "za.co.valuead.lms"
        },
        "cordova-plugin-statusbar": {
            "PACKAGE_NAME": "za.co.valuead.lms"
        },
        "cordova-plugin-whitelist": {
            "PACKAGE_NAME": "za.co.valuead.lms"
        },
        "cordova-plugin-clipboard-x": {
            "PACKAGE_NAME": "za.co.valuead.lms"
        },
        "cordova-plugin-bbd-base": {
            "PACKAGE_NAME": "com.dbs.sg.va07"
        },
        "cordova-plugin-bbd-storage": {
            "PACKAGE_NAME": "com.dbs.sg.va07"
        },
        "cordova-plugin-bbd-httprequest": {
            "PACKAGE_NAME": "com.dbs.sg.va07"
        },
        "cordova-plugin-bbd-xmlhttprequest": {
            "PACKAGE_NAME": "com.dbs.sg.va07"
        }
    },
    "dependent_plugins": {},
    "modules": [
        {
            "file": "plugins/cordova-plugin-device/www/device.js",
            "id": "cordova-plugin-device.device",
            "pluginId": "cordova-plugin-device",
            "clobbers": [
                "device"
            ]
        },
        {
            "file": "plugins/cordova-plugin-device/src/browser/DeviceProxy.js",
            "id": "cordova-plugin-device.DeviceProxy",
            "pluginId": "cordova-plugin-device",
            "runs": true
        },
        {
            "file": "plugins/cordova-plugin-globalization/www/GlobalizationError.js",
            "id": "cordova-plugin-globalization.GlobalizationError",
            "pluginId": "cordova-plugin-globalization",
            "clobbers": [
                "window.GlobalizationError"
            ]
        },
        {
            "file": "plugins/cordova-plugin-globalization/www/globalization.js",
            "id": "cordova-plugin-globalization.globalization",
            "pluginId": "cordova-plugin-globalization",
            "clobbers": [
                "navigator.globalization"
            ]
        },
        {
            "file": "plugins/cordova-plugin-globalization/www/browser/moment.js",
            "id": "cordova-plugin-globalization.moment",
            "pluginId": "cordova-plugin-globalization",
            "runs": true
        },
        {
            "file": "plugins/cordova-plugin-globalization/src/browser/GlobalizationProxy.js",
            "id": "cordova-plugin-globalization.GlobalizationProxy",
            "pluginId": "cordova-plugin-globalization",
            "runs": true
        },
        {
            "file": "plugins/com.phonegap.plugins.PushPlugin/www/PushNotification.js",
            "id": "com.phonegap.plugins.PushPlugin.PushNotification",
            "pluginId": "com.phonegap.plugins.PushPlugin",
            "clobbers": [
                "PushNotification"
            ]
        },
        {
            "file": "plugins/cordova-plugin-inappbrowser/www/inappbrowser.js",
            "id": "cordova-plugin-inappbrowser.inappbrowser",
            "pluginId": "cordova-plugin-inappbrowser",
            "clobbers": [
                "cordova.InAppBrowser.open",
                "window.open"
            ]
        },
        {
            "file": "plugins/cordova-plugin-inappbrowser/src/browser/InAppBrowserProxy.js",
            "id": "cordova-plugin-inappbrowser.InAppBrowserProxy",
            "pluginId": "cordova-plugin-inappbrowser",
            "runs": true
        },
        {
            "file": "plugins/cordova-plugin-statusbar/www/statusbar.js",
            "id": "cordova-plugin-statusbar.statusbar",
            "pluginId": "cordova-plugin-statusbar",
            "clobbers": [
                "window.StatusBar"
            ]
        },
        {
            "file": "plugins/cordova-plugin-statusbar/src/browser/StatusBarProxy.js",
            "id": "cordova-plugin-statusbar.StatusBarProxy",
            "pluginId": "cordova-plugin-statusbar",
            "runs": true
        },
        {
            "file": "plugins/cordova-plugin-clipboard-x/www/clipboard.js",
            "id": "cordova-plugin-clipboard-x.Clipboard",
            "pluginId": "cordova-plugin-clipboard-x",
            "clobbers": [
                "cordova.plugins.clipboard",
                "cordova.plugins.clipboard-x"
            ]
        }
    ],
    "plugin_metadata": {
        "cordova-plugin-device": "1.1.7-dev",
        "cordova-plugin-globalization": "1.0.8-dev",
        "com.phonegap.plugins.PushPlugin": "3.2.0",
        "cordova-plugin-console": "1.0.8-dev",
        "cordova-plugin-inappbrowser": "1.7.2-dev",
        "cordova-plugin-statusbar": "2.2.4-dev",
        "cordova-plugin-whitelist": "1.3.3-dev",
        "cordova-plugin-clipboard-x": "1.0.1",
        "cordova-plugin-bbd-base": "1.0.0",
        "cordova-plugin-bbd-storage": "1.0.0",
        "cordova-plugin-bbd-httprequest": "1.0.0",
        "cordova-plugin-bbd-xmlhttprequest": "1.0.0"
    }
}